COVID in Santa Barbara County
…
range(raw_data$date)

## [1] "2020-04-27" "2020-10-01"

Sanity check: for each geographic area, the numbers of cases, being cumulative totals, should increase monotonically over time. But this being the real world, in a few cases they dont. Perhaps decreasing case numbers reflect corrections?

raw_data %>%
  group_by(area) %>%
  arrange(date) %>%
  mutate(delta=cases-lag(cases)) %>% # computed within each group
  filter(delta < 0) %>%
  arrange(delta)

## # A tibble: 25 x 4
## # Groups:   area [9]
##    area                                              cases date       delta
##    <fct>                                             <int> <date>     <int>
##  1 FEDERAL PRISON IN LOMPOC                            984 2020-07-08   -10
##  2 FEDERAL PRISON IN LOMPOC                            893 2020-05-14    -3
##  3 CITY OF SANTA MARIA                                 139 2020-05-02    -2
##  4 SOUTH COUNTY UNINCORPORATED AREA includes commun   166 2020-08-12    -2
##  5 FEDERAL PRISON IN LOMPOC                           1024 2020-09-21    -2
##  6 UNINCORPORATED AREA OF THE GOLETA VALLEY AND GAV    14 2020-05-06    -1
##  7 UNINCORPORATED AREA OF THE GOLETA VALLEY AND GAV    15 2020-05-08    -1
##  8 SOUTH COUNTY UNINCORPORATED AREA includes commun    23 2020-05-09    -1
##  9 CITY OF GOLETA                                       10 2020-05-09    -1
## 10 SANTA YNEZ VALLEY including the Cities of Solvan     7 2020-05-09    -1
## #  with 15 more rows
…
